%YAML 1.1
%TAG !u! tag:unity3d.com,2011:
--- !u!74 &7400000
AnimationClip:
  m_ObjectHideFlags: 0
  m_PrefabParentObject: {fileID: 0}
  m_PrefabInternal: {fileID: 0}
  m_Name: Breakable_Forest_L
  serializedVersion: 6
  m_Legacy: 0
  m_Compressed: 0
  m_UseHighQualityCurve: 1
  m_RotationCurves: []
  m_CompressedRotationCurves: []
  m_PositionCurves: []
  m_ScaleCurves: []
  m_FloatCurves: []
  m_PPtrCurves:
  - curve:
    - time: 0
      value: {fileID: 21300000, guid: 08934c8ef3d0f6f42a45fda4a0b1ffc7, type: 3}
    - time: .100000001
      value: {fileID: 21300002, guid: 08934c8ef3d0f6f42a45fda4a0b1ffc7, type: 3}
    - time: .200000003
      value: {fileID: 21300004, guid: 08934c8ef3d0f6f42a45fda4a0b1ffc7, type: 3}
    - time: .300000012
      value: {fileID: 21300006, guid: 08934c8ef3d0f6f42a45fda4a0b1ffc7, type: 3}
    - time: .400000006
      value: {fileID: 21300008, guid: 08934c8ef3d0f6f42a45fda4a0b1ffc7, type: 3}
    - time: .5
      value: {fileID: 21300010, guid: 08934c8ef3d0f6f42a45fda4a0b1ffc7, type: 3}
    - time: .600000024
      value: {fileID: 21300012, guid: 08934c8ef3d0f6f42a45fda4a0b1ffc7, type: 3}
    - time: .699999988
      value: {fileID: 21300014, guid: 08934c8ef3d0f6f42a45fda4a0b1ffc7, type: 3}
    - time: .800000012
      value: {fileID: 21300016, guid: 08934c8ef3d0f6f42a45fda4a0b1ffc7, type: 3}
    - time: .899999976
      value: {fileID: 21300018, guid: 08934c8ef3d0f6f42a45fda4a0b1ffc7, type: 3}
    attribute: m_Sprite
    path: 
    classID: 212
    script: {fileID: 0}
  m_SampleRate: 10
  m_WrapMode: 0
  m_Bounds:
    m_Center: {x: 0, y: 0, z: 0}
    m_Extent: {x: 0, y: 0, z: 0}
  m_ClipBindingConstant:
    genericBindings:
    - path: 0
      attribute: 0
      script: {fileID: 0}
      classID: 212
      customType: 23
      isPPtrCurve: 1
    pptrCurveMapping:
    - {fileID: 21300000, guid: 08934c8ef3d0f6f42a45fda4a0b1ffc7, type: 3}
    - {fileID: 21300002, guid: 08934c8ef3d0f6f42a45fda4a0b1ffc7, type: 3}
    - {fileID: 21300004, guid: 08934c8ef3d0f6f42a45fda4a0b1ffc7, type: 3}
    - {fileID: 21300006, guid: 08934c8ef3d0f6f42a45fda4a0b1ffc7, type: 3}
    - {fileID: 21300008, guid: 08934c8ef3d0f6f42a45fda4a0b1ffc7, type: 3}
    - {fileID: 21300010, guid: 08934c8ef3d0f6f42a45fda4a0b1ffc7, type: 3}
    - {fileID: 21300012, guid: 08934c8ef3d0f6f42a45fda4a0b1ffc7, type: 3}
    - {fileID: 21300014, guid: 08934c8ef3d0f6f42a45fda4a0b1ffc7, type: 3}
    - {fileID: 21300016, guid: 08934c8ef3d0f6f42a45fda4a0b1ffc7, type: 3}
    - {fileID: 21300018, guid: 08934c8ef3d0f6f42a45fda4a0b1ffc7, type: 3}
  m_AnimationClipSettings:
    serializedVersion: 2
    m_StartTime: 0
    m_StopTime: 1
    m_OrientationOffsetY: 0
    m_Level: 0
    m_CycleOffset: 0
    m_LoopTime: 1
    m_LoopBlend: 0
    m_LoopBlendOrientation: 0
    m_LoopBlendPositionY: 0
    m_LoopBlendPositionXZ: 0
    m_KeepOriginalOrientation: 0
    m_KeepOriginalPositionY: 1
    m_KeepOriginalPositionXZ: 0
    m_HeightFromFeet: 0
    m_Mirror: 0
  m_EditorCurves: []
  m_EulerEditorCurves: []
  m_HasGenericRootTransform: 0
  m_HasMotionFloatCurves: 0
  m_GenerateMotionCurves: 0
  m_Events: []
