%YAML 1.1
%TAG !u! tag:unity3d.com,2011:
--- !u!1 &160434
GameObject:
  m_ObjectHideFlags: 0
  m_PrefabParentObject: {fileID: 0}
  m_PrefabInternal: {fileID: 100100000}
  serializedVersion: 4
  m_Component:
  - 4: {fileID: 451820}
  - 114: {fileID: 11457884}
  m_Layer: 0
  m_Name: P_StartTimer
  m_TagString: Untagged
  m_Icon: {fileID: 0}
  m_NavMeshLayer: 0
  m_StaticEditorFlags: 0
  m_IsActive: 1
--- !u!4 &451820
Transform:
  m_ObjectHideFlags: 1
  m_PrefabParentObject: {fileID: 0}
  m_PrefabInternal: {fileID: 100100000}
  m_GameObject: {fileID: 160434}
  m_LocalRotation: {x: 0, y: 0, z: 0, w: 1}
  m_LocalPosition: {x: 0, y: 0, z: -10}
  m_LocalScale: {x: 1, y: 1, z: 1}
  m_Children: []
  m_Father: {fileID: 0}
  m_RootOrder: 0
--- !u!114 &11457884
MonoBehaviour:
  m_ObjectHideFlags: 1
  m_PrefabParentObject: {fileID: 0}
  m_PrefabInternal: {fileID: 100100000}
  m_GameObject: {fileID: 160434}
  m_Enabled: 1
  m_EditorHideFlags: 0
  m_Script: {fileID: 11500000, guid: 6e5b86e1153afff4381c672e3d1b1a49, type: 3}
  m_Name: 
  m_EditorClassIdentifier: 
  m_font: {fileID: 12800000, guid: a2ba8d75534284e4390e5facb1439e0c, type: 3}
  texture: {fileID: 2800000, guid: 3d943dffe26a9fe4eab6f7ed85533f0c, type: 3}
  Timer1: {fileID: 2800000, guid: f0314c478b159cc43803f327d9068b78, type: 3}
  Timer2: {fileID: 2800000, guid: 89a1cc80c4cae68499f2928b29d9fe6a, type: 3}
  Timer3: {fileID: 2800000, guid: 3f8842896c5ceba4abf9624f6207f8c9, type: 3}
  TimerGo: {fileID: 2800000, guid: 56a23de16a6fa4141ad72708849a9030, type: 3}
--- !u!1001 &100100000
Prefab:
  m_ObjectHideFlags: 1
  serializedVersion: 2
  m_Modification:
    m_TransformParent: {fileID: 0}
    m_Modifications: []
    m_RemovedComponents: []
  m_ParentPrefab: {fileID: 0}
  m_RootGameObject: {fileID: 160434}
  m_IsPrefabParent: 1
