%YAML 1.1
%TAG !u! tag:unity3d.com,2011:
--- !u!78 &1
TagManager:
  serializedVersion: 2
  tags:
  - Player
  - Player 2
  - Ground
  - PickUp
  - Breakable
  - Wall
  - PlayerOneShockwave
  - PlayerTwoShockwave
  - PlayerOneMagnet
  - PlayerTwoMagnet
  - coin
  - GuiText
  - Score
  - AudioManager
  - PlayerOneCamera
  - PlayerTwoCamera
  layers:
  - Default
  - TransparentFX
  - Ignore Raycast
  - 
  - Water
  - UI
  - 
  - 
  - PickUps
  - Breakable
  - Player
  - Ground
  - Wall
  - P1Camera
  - Ice
  - 
  - 
  - 
  - 
  - 
  - 
  - 
  - 
  - 
  - 
  - 
  - 
  - 
  - 
  - 
  - 
  - 
  m_SortingLayers:
  - name: Background
    uniqueID: 3568639811
    locked: 0
  - name: Default
    uniqueID: 0
    locked: 0
