%YAML 1.1
%TAG !u! tag:unity3d.com,2011:
--- !u!1 &114834
GameObject:
  m_ObjectHideFlags: 0
  m_PrefabParentObject: {fileID: 0}
  m_PrefabInternal: {fileID: 100100000}
  serializedVersion: 4
  m_Component:
  - 4: {fileID: 422440}
  - 114: {fileID: 11446764}
  m_Layer: 0
  m_Name: ICE
  m_TagString: Untagged
  m_Icon: {fileID: 0}
  m_NavMeshLayer: 0
  m_StaticEditorFlags: 0
  m_IsActive: 1
--- !u!4 &422440
Transform:
  m_ObjectHideFlags: 1
  m_PrefabParentObject: {fileID: 0}
  m_PrefabInternal: {fileID: 100100000}
  m_GameObject: {fileID: 114834}
  m_LocalRotation: {x: 0, y: 0, z: 0, w: 1}
  m_LocalPosition: {x: 0, y: 0, z: 0}
  m_LocalScale: {x: 1, y: 1, z: 1}
  m_Children: []
  m_Father: {fileID: 0}
  m_RootOrder: 0
--- !u!114 &11446764
MonoBehaviour:
  m_ObjectHideFlags: 1
  m_PrefabParentObject: {fileID: 0}
  m_PrefabInternal: {fileID: 100100000}
  m_GameObject: {fileID: 114834}
  m_Enabled: 1
  m_EditorHideFlags: 0
  m_Script: {fileID: 11500000, guid: 5a21887e1cf80db49978ff567bcdd66c, type: 3}
  m_Name: 
  m_EditorClassIdentifier: 
<<<<<<< HEAD:Assets/Materials/TestMaterial.prefab
  fillMaterial: {fileID: 2100000, guid: d1d477afaa7dc4d46bc5189b61e33d1e, type: 2}
  edgeMaterial: {fileID: 2100000, guid: 11854f70fa0f8aa4aacc8640a8d1e8e3, type: 2}
=======
  fillMaterial: {fileID: 0}
  edgeMaterial: {fileID: 2100000, guid: f814f7c97538d554d8a97833ba910529, type: 2}
>>>>>>> b31018c56691d718d7001850aeb4b7514a6f601f:Assets/Materials/Mountain/ICE.prefab
  descriptors:
  - applyTo: 0
    zOffset: 0
    yOffset: 0
    leftCap:
      serializedVersion: 2
      x: 0
      y: .483398438
      width: .250976562
      height: .149414062
    innerLeftCap:
      serializedVersion: 2
      x: 0
      y: 0
      width: 0
      height: 0
    rightCap:
      serializedVersion: 2
      x: .749023438
      y: .483398438
      width: .250976562
      height: .149414062
    innerRightCap:
      serializedVersion: 2
      x: 0
      y: 0
      width: 0
      height: 0
    body:
    - serializedVersion: 2
      x: .250976562
      y: .483398438
      width: .498046875
      height: .149414062
    capOffset: 0
  - applyTo: 0
    zOffset: 0
    yOffset: 0
    leftCap:
      serializedVersion: 2
      x: 0
      y: 0
      width: 0
      height: 0
    innerLeftCap:
      serializedVersion: 2
      x: 0
      y: 0
      width: 0
      height: 0
    rightCap:
      serializedVersion: 2
      x: 0
      y: 0
      width: 0
      height: 0
    innerRightCap:
      serializedVersion: 2
      x: 0
      y: 0
      width: 0
      height: 0
    body:
    - serializedVersion: 2
      x: 0
      y: 0
      width: .048828125
      height: .048828125
    capOffset: 0
  - applyTo: 0
    zOffset: 0
    yOffset: 0
    leftCap:
      serializedVersion: 2
      x: 0
      y: 0
      width: 0
      height: 0
    innerLeftCap:
      serializedVersion: 2
      x: 0
      y: 0
      width: 0
      height: 0
    rightCap:
      serializedVersion: 2
      x: 0
      y: 0
      width: 0
      height: 0
    innerRightCap:
      serializedVersion: 2
      x: 0
      y: 0
      width: 0
      height: 0
    body:
    - serializedVersion: 2
      x: 0
      y: 0
      width: .048828125
      height: .048828125
    capOffset: 0
  - applyTo: 0
    zOffset: 0
    yOffset: 0
    leftCap:
      serializedVersion: 2
      x: 0
      y: 0
      width: 0
      height: 0
    innerLeftCap:
      serializedVersion: 2
      x: 0
      y: 0
      width: 0
      height: 0
    rightCap:
      serializedVersion: 2
      x: 0
      y: 0
      width: 0
      height: 0
    innerRightCap:
      serializedVersion: 2
      x: 0
      y: 0
      width: 0
      height: 0
    body:
    - serializedVersion: 2
      x: 0
      y: 0
      width: .048828125
      height: .048828125
    capOffset: 0
  isPixel: 0
--- !u!1001 &100100000
Prefab:
  m_ObjectHideFlags: 1
  serializedVersion: 2
  m_Modification:
    m_TransformParent: {fileID: 0}
    m_Modifications:
    - target: {fileID: 0}
      propertyPath: edgeMaterial
      value: 
      objectReference: {fileID: 2100000, guid: f814f7c97538d554d8a97833ba910529, type: 2}
    - target: {fileID: 0}
      propertyPath: descriptors.Array.data[0].rightCap.x
      value: .749023438
      objectReference: {fileID: 0}
    - target: {fileID: 0}
      propertyPath: descriptors.Array.data[0].body.Array.data[0].width
      value: .498046875
      objectReference: {fileID: 0}
    - target: {fileID: 0}
      propertyPath: descriptors.Array.data[0].body.Array.data[0].height
      value: .149414062
      objectReference: {fileID: 0}
    - target: {fileID: 0}
      propertyPath: descriptors.Array.data[1].body.Array.data[0].width
      value: .048828125
      objectReference: {fileID: 0}
    - target: {fileID: 0}
      propertyPath: descriptors.Array.data[1].body.Array.data[0].height
      value: .048828125
      objectReference: {fileID: 0}
    - target: {fileID: 0}
      propertyPath: descriptors.Array.data[2].body.Array.data[0].width
      value: .048828125
      objectReference: {fileID: 0}
    - target: {fileID: 0}
      propertyPath: descriptors.Array.data[2].body.Array.data[0].height
      value: .048828125
      objectReference: {fileID: 0}
    - target: {fileID: 0}
      propertyPath: descriptors.Array.data[3].body.Array.data[0].width
      value: .048828125
      objectReference: {fileID: 0}
    - target: {fileID: 0}
      propertyPath: descriptors.Array.data[3].body.Array.data[0].height
      value: .048828125
      objectReference: {fileID: 0}
    - target: {fileID: 0}
      propertyPath: isPixel
      value: 0
      objectReference: {fileID: 0}
    - target: {fileID: 0}
      propertyPath: descriptors.Array.data[0].leftCap.y
      value: .483398438
      objectReference: {fileID: 0}
    - target: {fileID: 0}
      propertyPath: descriptors.Array.data[0].rightCap.y
      value: .483398438
      objectReference: {fileID: 0}
    - target: {fileID: 0}
      propertyPath: descriptors.Array.data[0].body.Array.data[0].y
      value: .483398438
      objectReference: {fileID: 0}
    - target: {fileID: 0}
      propertyPath: descriptors.Array.data[0].leftCap.x
      value: 0
      objectReference: {fileID: 0}
    - target: {fileID: 0}
<<<<<<< HEAD:Assets/Materials/TestMaterial.prefab
      propertyPath: fillMaterial
      value: 
      objectReference: {fileID: 2100000, guid: d1d477afaa7dc4d46bc5189b61e33d1e, type: 2}
=======
      propertyPath: descriptors.Array.data[0].body.Array.data[0].x
      value: .250976562
      objectReference: {fileID: 0}
    - target: {fileID: 0}
      propertyPath: descriptors.Array.data[0].leftCap.width
      value: .250976562
      objectReference: {fileID: 0}
    - target: {fileID: 0}
      propertyPath: descriptors.Array.data[0].leftCap.height
      value: .149414062
      objectReference: {fileID: 0}
    - target: {fileID: 0}
      propertyPath: descriptors.Array.data[0].rightCap.width
      value: .250976562
      objectReference: {fileID: 0}
    - target: {fileID: 0}
      propertyPath: descriptors.Array.data[0].rightCap.height
      value: .149414062
      objectReference: {fileID: 0}
>>>>>>> b31018c56691d718d7001850aeb4b7514a6f601f:Assets/Materials/Mountain/ICE.prefab
    m_RemovedComponents: []
  m_ParentPrefab: {fileID: 0}
  m_RootGameObject: {fileID: 114834}
  m_IsPrefabParent: 1
